[
    {
      "id": "0103e005-b762-485f-8f7e-722019d4f302",
      "source": "REPORT",
      "sourceIdentityId": "6750b4d5-4cb5-45f0-8b60-61be2072cce2",
      "reference": {
        "referenceId": "6706b3ba-bf36-4ad4-9b9d-4ebf4f4e2429",
        "referenceType": "REPORT"
      },
      "state": "OPEN",
      "payload": {
        "source": "REPORT",
        "reportType": "SPAM",
        "message": null,
        "reportId": "6706b3ba-bf36-4ad4-9b9d-4ebf4f4e2429",
        "referenceResourceId": "a03411ce-0197-49a2-86d4-55e06aa52e79",
        "referenceResourceType": "REPLY"
      },
      "created": "2017-10-02T16:09:04.258Z"
    },
    {
      "id": "01322891-c5cb-4ac5-90d4-3c4224f40ba2",
      "source": "REPORT",
      "sourceIdentityId": "d0ba4c4a-39da-4d2c-8934-80652da104fe",
      "reference": {
        "referenceId": "130debb9-cb13-49eb-881e-86fd3244639c",
        "referenceType": "REPORT"
      },
      "state": "OPEN",
      "payload": {
        "source": "REPORT",
        "reportType": "SPAM",
        "message": null,
        "reportId": "130debb9-cb13-49eb-881e-86fd3244639c",
        "referenceResourceId": "ba6f65d6-1a83-42bc-8839-ea2639faeb69",
        "referenceResourceType": "ARTICLE"
      },
      "created": "2017-10-30T14:34:06.569Z"
    },
    {
      "id": "015bfeed-34a5-492d-bf4e-51a9afffe1ea",
      "source": "REPORT",
      "sourceIdentityId": "4bd630eb-4b36-4038-aa8e-e58c4025de1f",
      "reference": {
        "referenceId": "7274d582-9a1e-42bd-aa0f-f563904bfbab",
        "referenceType": "REPORT"
      },
      "state": "OPEN",
      "payload": {
        "source": "REPORT",
        "reportType": "INFRINGES_PROPERTY",
        "message": "it's a hippo!",
        "reportId": "7274d582-9a1e-42bd-aa0f-f563904bfbab",
        "referenceResourceId": "1573590e-f4bc-4cf4-82af-378a83fea5ab",
        "referenceResourceType": "POST"
      },
      "created": "2017-10-20T07:58:49.763Z"
    },
    {
      "id": "030015d0-097c-4991-892d-06aff536bb6c",
      "source": "REPORT",
      "sourceIdentityId": "d0ba4c4a-39da-4d2c-8934-80652da104fe",
      "reference": {
        "referenceId": "7b4cf776-49d5-4c24-8837-153fc34d6d2c",
        "referenceType": "REPORT"
      },
      "state": "OPEN",
      "payload": {
        "source": "REPORT",
        "reportType": "SPAM",
        "message": null,
        "reportId": "7b4cf776-49d5-4c24-8837-153fc34d6d2c",
        "referenceResourceId": "60c858e0-6961-4d20-a949-ef3382b2e8e4",
        "referenceResourceType": "POST"
      },
      "created": "2017-10-27T14:14:12.327Z"
    },
    {
      "id": "033bedc5-c77f-4069-b162-7a6cf7b835b2",
      "source": "REPORT",
      "sourceIdentityId": "6750b4d5-4cb5-45f0-8b60-61be2072cce2",
      "reference": {
        "referenceId": "d9865001-c46e-4fd5-b810-4310fa41cf3d",
        "referenceType": "REPORT"
      },
      "state": "OPEN",
      "payload": {
        "source": "REPORT",
        "reportType": "VIOLATES_POLICIES",
        "message": "hjasds asjdkjsa daskds dasjkds",
        "reportId": "d9865001-c46e-4fd5-b810-4310fa41cf3d",
        "referenceResourceId": "c8ba7a4b-1aa6-471b-bf91-748f915af1fb",
        "referenceResourceType": "POST"
      },
      "created": "2017-09-29T07:40:07.871Z"
    },
    {
      "id": "04c10147-fe29-435b-8973-94da0c228f74",
      "source": "REPORT",
      "sourceIdentityId": "6750b4d5-4cb5-45f0-8b60-61be2072cce2",
      "reference": {
        "referenceId": "65156553-b340-413d-9e30-357fa00b14a5",
        "referenceType": "REPORT"
      },
      "state": "OPEN",
      "payload": {
        "source": "REPORT",
        "reportType": "INFRINGES_PROPERTY",
        "message": "i'm in this picture! and i didn't sign a model release form",
        "reportId": "65156553-b340-413d-9e30-357fa00b14a5",
        "referenceResourceId": "aa875f29-84dd-438d-8682-47412c8ec7d9",
        "referenceResourceType": "POST"
      },
      "created": "2017-09-29T11:30:34.267Z"
    },
    {
      "id": "0595df57-e5e2-4acd-8fd7-a234fa70ab14",
      "source": "REPORT",
      "sourceIdentityId": "6750b4d5-4cb5-45f0-8b60-61be2072cce2",
      "reference": {
        "referenceId": "d9865001-c46e-4fd5-b810-4310fa41cf3d",
        "referenceType": "REPORT"
      },
      "state": "OPEN",
      "payload": {
        "source": "REPORT",
        "reportType": "VIOLATES_POLICIES",
        "message": "hjasds asjdkjsa daskds dasjkds",
        "reportId": "d9865001-c46e-4fd5-b810-4310fa41cf3d",
        "referenceResourceId": "c8ba7a4b-1aa6-471b-bf91-748f915af1fb",
        "referenceResourceType": "POST"
      },
      "created": "2017-09-29T08:30:09.442Z"
    },
    {
      "id": "0694a47e-8785-4b2b-9c09-24a79676a5ac",
      "source": "REPORT",
      "sourceIdentityId": "d0ba4c4a-39da-4d2c-8934-80652da104fe",
      "reference": {
        "referenceId": "df8168eb-5b9a-471f-bcb1-23644bbbb1b6",
        "referenceType": "REPORT"
      },
      "state": "OPEN",
      "payload": {
        "source": "REPORT",
        "reportType": "SPAM",
        "message": null,
        "reportId": "df8168eb-5b9a-471f-bcb1-23644bbbb1b6",
        "referenceResourceId": "5023fa78-d75a-47da-ad39-87121d44aa32",
        "referenceResourceType": "POST"
      },
      "created": "2017-11-01T16:40:01.471Z"
    },
    {
      "id": "06c6055f-5cf1-4153-9e8e-a995cdeaaea8",
      "source": "REPORT",
      "sourceIdentityId": "6750b4d5-4cb5-45f0-8b60-61be2072cce2",
      "reference": {
        "referenceId": "823a8e90-44b3-47ad-8f80-3f0c4e3e2558",
        "referenceType": "REPORT"
      },
      "state": "OPEN",
      "payload": {
        "source": "REPORT",
        "reportType": "SPAM",
        "message": null,
        "reportId": "823a8e90-44b3-47ad-8f80-3f0c4e3e2558",
        "referenceResourceId": "a9512d24-6240-4da4-b792-60ddc59b452e",
        "referenceResourceType": "ARTICLE"
      },
      "created": "2017-09-29T09:13:16.753Z"
    },
    {
      "id": "0720d038-0782-4971-91b8-9998b2d6ce63",
      "source": "REPORT",
      "sourceIdentityId": "4aedb79f-6fcf-4543-a03e-85825c9c49c5",
      "reference": {
        "referenceId": "b1774dd3-6d05-44e8-b344-1983e3fc2865",
        "referenceType": "REPORT"
      },
      "state": "OPEN",
      "payload": {
        "source": "REPORT",
        "reportType": "SPAM",
        "message": null,
        "reportId": "b1774dd3-6d05-44e8-b344-1983e3fc2865",
        "referenceResourceId": "ee52fde6-872e-4f71-8bd5-a3cff26ccda8",
        "referenceResourceType": "POST"
      },
      "created": "2017-11-02T13:38:07.270Z"
    },
    {
      "id": "07b74660-b92e-4cd9-8ec8-016bbb6d6edc",
      "source": "REPORT",
      "sourceIdentityId": "6750b4d5-4cb5-45f0-8b60-61be2072cce2",
      "reference": {
        "referenceId": "823a8e90-44b3-47ad-8f80-3f0c4e3e2558",
        "referenceType": "REPORT"
      },
      "state": "OPEN",
      "payload": {
        "source": "REPORT",
        "reportType": "SPAM",
        "message": null,
        "reportId": "823a8e90-44b3-47ad-8f80-3f0c4e3e2558",
        "referenceResourceId": "a9512d24-6240-4da4-b792-60ddc59b452e",
        "referenceResourceType": "ARTICLE"
      },
      "created": "2017-09-29T10:46:16.109Z"
    },
    {
      "id": "081818c5-3514-4971-a532-9804da24c45e",
      "source": "REPORT",
      "sourceIdentityId": "6750b4d5-4cb5-45f0-8b60-61be2072cce2",
      "reference": {
        "referenceId": "08a54583-8cd0-44f3-a63d-7ed271524c42",
        "referenceType": "REPORT"
      },
      "state": "OPEN",
      "payload": {
        "source": "REPORT",
        "reportType": "SPAM",
        "message": null,
        "reportId": "08a54583-8cd0-44f3-a63d-7ed271524c42",
        "referenceResourceId": "0191f736-b7b7-4896-8d1c-1b18ec99fe3a",
        "referenceResourceType": "REPLY"
      },
      "created": "2017-10-04T09:39:18.261Z"
    },
    {
      "id": "097b6940-3bf6-4a01-84f6-cd3f86b60dbe",
      "source": "REPORT",
      "sourceIdentityId": "6750b4d5-4cb5-45f0-8b60-61be2072cce2",
      "reference": {
        "referenceId": "823a8e90-44b3-47ad-8f80-3f0c4e3e2558",
        "referenceType": "REPORT"
      },
      "state": "OPEN",
      "payload": {
        "source": "REPORT",
        "reportType": "SPAM",
        "message": null,
        "reportId": "823a8e90-44b3-47ad-8f80-3f0c4e3e2558",
        "referenceResourceId": "a9512d24-6240-4da4-b792-60ddc59b452e",
        "referenceResourceType": "ARTICLE"
      },
      "created": "2017-09-29T09:12:11.434Z"
    },
    {
      "id": "09ecf137-cbda-4d41-a6b2-142d2883da17",
      "source": "REPORT",
      "sourceIdentityId": "6750b4d5-4cb5-45f0-8b60-61be2072cce2",
      "reference": {
        "referenceId": "823a8e90-44b3-47ad-8f80-3f0c4e3e2558",
        "referenceType": "REPORT"
      },
      "state": "OPEN",
      "payload": {
        "source": "REPORT",
        "reportType": "SPAM",
        "message": null,
        "reportId": "823a8e90-44b3-47ad-8f80-3f0c4e3e2558",
        "referenceResourceId": "a9512d24-6240-4da4-b792-60ddc59b452e",
        "referenceResourceType": "ARTICLE"
      },
      "created": "2017-09-29T09:50:50.437Z"
    },
    {
      "id": "0ab9c1c0-ed01-4194-99ae-cfd72586edd5",
      "source": "REPORT",
      "sourceIdentityId": "6750b4d5-4cb5-45f0-8b60-61be2072cce2",
      "reference": {
        "referenceId": "d9865001-c46e-4fd5-b810-4310fa41cf3d",
        "referenceType": "REPORT"
      },
      "state": "OPEN",
      "payload": {
        "source": "REPORT",
        "reportType": "VIOLATES_POLICIES",
        "message": "hjasds asjdkjsa daskds dasjkds",
        "reportId": "d9865001-c46e-4fd5-b810-4310fa41cf3d",
        "referenceResourceId": "c8ba7a4b-1aa6-471b-bf91-748f915af1fb",
        "referenceResourceType": "POST"
      },
      "created": "2017-09-29T09:50:50.368Z"
    },
    {
      "id": "0b619542-7d35-4ccd-a0c7-3d9a9ca06333",
      "source": "REPORT",
      "sourceIdentityId": "4aedb79f-6fcf-4543-a03e-85825c9c49c5",
      "reference": {
        "referenceId": "7dcd3cd0-e842-4b29-a711-442bfa5acd08",
        "referenceType": "REPORT"
      },
      "state": "OPEN",
      "payload": {
        "source": "REPORT",
        "reportType": "INFRINGES_PROPERTY",
        "message": "sd asd asd ",
        "reportId": "7dcd3cd0-e842-4b29-a711-442bfa5acd08",
        "referenceResourceId": "43395ec2-2895-4f66-8f96-26d2a411cae8",
        "referenceResourceType": "POST"
      },
      "created": "2017-11-02T13:41:41.352Z"
    },
    {
      "id": "0bd7cceb-98d8-49ab-b50b-9ae9c57c7a31",
      "source": "REPORT",
      "sourceIdentityId": "6750b4d5-4cb5-45f0-8b60-61be2072cce2",
      "reference": {
        "referenceId": "d9865001-c46e-4fd5-b810-4310fa41cf3d",
        "referenceType": "REPORT"
      },
      "state": "OPEN",
      "payload": {
        "source": "REPORT",
        "reportType": "VIOLATES_POLICIES",
        "message": "hjasds asjdkjsa daskds dasjkds",
        "reportId": "d9865001-c46e-4fd5-b810-4310fa41cf3d",
        "referenceResourceId": "c8ba7a4b-1aa6-471b-bf91-748f915af1fb",
        "referenceResourceType": "POST"
      },
      "created": "2017-09-29T08:00:08.415Z"
    },
    {
      "id": "0bf45359-d316-4a9d-87a2-5b2536b0d3ef",
      "source": "REPORT",
      "sourceIdentityId": "6750b4d5-4cb5-45f0-8b60-61be2072cce2",
      "reference": {
        "referenceId": "823a8e90-44b3-47ad-8f80-3f0c4e3e2558",
        "referenceType": "REPORT"
      },
      "state": "OPEN",
      "payload": {
        "source": "REPORT",
        "reportType": "SPAM",
        "message": null,
        "reportId": "823a8e90-44b3-47ad-8f80-3f0c4e3e2558",
        "referenceResourceId": "a9512d24-6240-4da4-b792-60ddc59b452e",
        "referenceResourceType": "ARTICLE"
      },
      "created": "2017-09-29T10:46:30.251Z"
    },
    {
      "id": "0bf4a85b-6da3-4eab-a740-55ec51006d0e",
      "source": "REPORT",
      "sourceIdentityId": "6750b4d5-4cb5-45f0-8b60-61be2072cce2",
      "reference": {
        "referenceId": "233d9a03-d68f-44ee-9977-bf9b4269c428",
        "referenceType": "REPORT"
      },
      "state": "OPEN",
      "payload": {
        "source": "REPORT",
        "reportType": "SPAM",
        "message": null,
        "reportId": "233d9a03-d68f-44ee-9977-bf9b4269c428",
        "referenceResourceId": "7386353b-9428-418c-b44f-fcf33006cd56",
        "referenceResourceType": "REPLY"
      },
      "created": "2017-10-02T15:40:07.156Z"
    },
    {
      "id": "0c3c7aca-2775-4e61-9884-61a2f5bcdef7",
      "source": "REPORT",
      "sourceIdentityId": "4bd630eb-4b36-4038-aa8e-e58c4025de1f",
      "reference": {
        "referenceId": "7274d582-9a1e-42bd-aa0f-f563904bfbab",
        "referenceType": "REPORT"
      },
      "state": "OPEN",
      "payload": {
        "source": "REPORT",
        "reportType": "INFRINGES_PROPERTY",
        "message": "it's a hippo!",
        "reportId": "7274d582-9a1e-42bd-aa0f-f563904bfbab",
        "referenceResourceId": "1573590e-f4bc-4cf4-82af-378a83fea5ab",
        "referenceResourceType": "POST"
      },
      "created": "2017-10-20T07:25:17.110Z"
    },
    {
      "id": "0d135c5c-0e68-46b0-a40d-522947790f6e",
      "source": "REPORT",
      "sourceIdentityId": "6750b4d5-4cb5-45f0-8b60-61be2072cce2",
      "reference": {
        "referenceId": "fb052ff2-a969-432f-b142-5ff7da1c4f40",
        "referenceType": "REPORT"
      },
      "state": "OPEN",
      "payload": {
        "source": "REPORT",
        "reportType": "SPAM",
        "message": null,
        "reportId": "fb052ff2-a969-432f-b142-5ff7da1c4f40",
        "referenceResourceId": "b75b6381-9e10-445f-9421-558e43bfa8ed",
        "referenceResourceType": "POST"
      },
      "created": "2017-09-29T11:30:56.747Z"
    },
    {
      "id": "0f183fa4-103d-4f1a-9c55-c602567a95db",
      "source": "REPORT",
      "sourceIdentityId": "6750b4d5-4cb5-45f0-8b60-61be2072cce2",
      "reference": {
        "referenceId": "823a8e90-44b3-47ad-8f80-3f0c4e3e2558",
        "referenceType": "REPORT"
      },
      "state": "OPEN",
      "payload": {
        "source": "REPORT",
        "reportType": "SPAM",
        "message": null,
        "reportId": "823a8e90-44b3-47ad-8f80-3f0c4e3e2558",
        "referenceResourceId": "a9512d24-6240-4da4-b792-60ddc59b452e",
        "referenceResourceType": "ARTICLE"
      },
      "created": "2017-09-29T09:45:49.664Z"
    },
    {
      "id": "1070bcf3-26f6-488d-be9b-81042f509bb5",
      "source": "REPORT",
      "sourceIdentityId": "6750b4d5-4cb5-45f0-8b60-61be2072cce2",
      "reference": {
        "referenceId": "d9865001-c46e-4fd5-b810-4310fa41cf3d",
        "referenceType": "REPORT"
      },
      "state": "OPEN",
      "payload": {
        "source": "REPORT",
        "reportType": "VIOLATES_POLICIES",
        "message": "hjasds asjdkjsa daskds dasjkds",
        "reportId": "d9865001-c46e-4fd5-b810-4310fa41cf3d",
        "referenceResourceId": "c8ba7a4b-1aa6-471b-bf91-748f915af1fb",
        "referenceResourceType": "POST"
      },
      "created": "2017-09-29T09:12:11.421Z"
    },
    {
      "id": "10741b2d-8ef8-43b3-9327-44a3a2b5d561",
      "source": "REPORT",
      "sourceIdentityId": "6750b4d5-4cb5-45f0-8b60-61be2072cce2",
      "reference": {
        "referenceId": "d9865001-c46e-4fd5-b810-4310fa41cf3d",
        "referenceType": "REPORT"
      },
      "state": "OPEN",
      "payload": {
        "source": "REPORT",
        "reportType": "VIOLATES_POLICIES",
        "message": "hjasds asjdkjsa daskds dasjkds",
        "reportId": "d9865001-c46e-4fd5-b810-4310fa41cf3d",
        "referenceResourceId": "c8ba7a4b-1aa6-471b-bf91-748f915af1fb",
        "referenceResourceType": "POST"
      },
      "created": "2017-09-29T08:20:09.109Z"
    },
    {
      "id": "11c347a7-223a-4b6f-8b26-e492474873c1",
      "source": "REPORT",
      "sourceIdentityId": "d0ba4c4a-39da-4d2c-8934-80652da104fe",
      "reference": {
        "referenceId": "6906a7e4-f71f-4702-8cc7-6dfd77d3d7b8",
        "referenceType": "REPORT"
      },
      "state": "RESOLVED",
      "payload": {
        "source": "REPORT",
        "reportType": "SPAM",
        "message": null,
        "reportId": "6906a7e4-f71f-4702-8cc7-6dfd77d3d7b8",
        "referenceResourceId": "f57b0b3d-9200-4ae7-854d-cee94b042988",
        "referenceResourceType": "ARTICLE"
      },
      "created": "2017-11-09T15:34:49.182Z"
    }
  ]
